model\phone\Android.class
model\phone\Connectivity.class
model\Contact.class
model\phone\Storage.class
model\phone\Camera.class
model\phone\SizeAndWeight.class
model\phone\Display.class
model\phone\Battery.class
model\AbstractModel.class
model\JobOffer.class
model\phone\Hardware.class
model\phone\Phone.class
utils\PhoneUtils.class
